------------------------------------------------------------------------
r1121278 | scripty | 2010-05-01 13:52:20 +1200 (Sat, 01 May 2010) | 1 line

SVN_SILENT made messages (.desktop file)
------------------------------------------------------------------------
r1122917 | scripty | 2010-05-05 13:56:05 +1200 (Wed, 05 May 2010) | 1 line

SVN_SILENT made messages (.desktop file)
------------------------------------------------------------------------
r1123415 | scripty | 2010-05-06 14:05:27 +1200 (Thu, 06 May 2010) | 1 line

SVN_SILENT made messages (.desktop file)
------------------------------------------------------------------------
r1126860 | scripty | 2010-05-15 14:02:05 +1200 (Sat, 15 May 2010) | 1 line

SVN_SILENT made messages (.desktop file)
------------------------------------------------------------------------
r1127590 | scripty | 2010-05-17 14:18:24 +1200 (Mon, 17 May 2010) | 1 line

SVN_SILENT made messages (.desktop file)
------------------------------------------------------------------------
r1130302 | scripty | 2010-05-25 14:34:45 +1200 (Tue, 25 May 2010) | 1 line

SVN_SILENT made messages (.desktop file)
------------------------------------------------------------------------
